…
The result includes the `competitor_id`, which is required as input in
order to query an athlete’s results.

With the object returned by `query_athletes()`, it is now possible to
query all the race result of an athlete. Note that `query_results()`
must be called with a single athlete. The following query only obtains
the results in downhill races:

``` r
cuche_res <- query_results(cuche, discipline = "DH")
cuche_res %>% 
  select(athlete:place, category:rank, race_id)
#> # A tibble: 303 × 7
#>    athlete      date       place      category  discipline  rank race_id
#>    <chr>        <date>     <chr>      <chr>     <chr>      <int> <chr>  
#>  1 Cuche Didier 2012-03-14 Schladming World Cup Downhill      17 66746  
#>  2 Cuche Didier 2012-03-13 Schladming Training  Downhill       1 66744  
#>  3 Cuche Didier 2012-03-03 Kvitfjell  World Cup Downhill      10 66811  
#>  4 Cuche Didier 2012-03-01 Kvitfjell  Training  Downhill       2 66809  
#>  5 Cuche Didier 2012-02-29 Kvitfjell  Training  Downhill       3 66810  
#>  6 Cuche Didier 2012-02-11 Sochi      World Cup Downhill      12 66801  
#>  7 Cuche Didier 2012-02-10 Sochi      Training  Downhill       7 66800  
#>  8 Cuche Didier 2012-02-08 Sochi      Training  Downhill       2 66798  
#>  9 Cuche Didier 2012-02-04 Chamonix   World Cup Downhill       7 66795  
#> 10 Cuche Didier 2012-02-03 Chamonix   World Cup Downhill       3 66767  
#> # ℹ 293 more rows
```

The result includes the `race_id`, which is required as input in order
to query the full results of a race.

By extracting one of the races from the table, one can now obtain the
full results for that race. The following code gets the full result for
Didier Cuche’s last victory in Wengen:

``` r
wengen_res <- cuche_res %>% 
  filter(place == "Wengen", rank == 1) %>% 
  head(n = 1) %>%
  query_race()
wengen_res
#> # A tibble: 70 × 8
#>     rank   bib fis_code name               birth_year nation time      diff_time
#>    <int> <int> <chr>    <chr>                   <int> <chr>  <Period>  <Period> 
#>  1     1    18 510030   Cuche Didier             1974 SUI    1M 50.31S 0S       
#>  2     2    12 292514   Heel Werner              1982 ITA    1M 51.17S 0.86S    
#>  3     3    15 511313   Janka Carlo              1986 SUI    1M 51.52S 1.21S    
#>  4     4     1 560332   Jerman Andrej            1978 SLO    1M 51.58S 1.27S    
#>  5     5     3 533866   Nyman Steven             1982 USA    1M 51.67S 1.36S    
#>  6     6    14 51005    Scheiber Mario           1983 AUT    1M 51.76S 1.45S    
#>  7     7    28 50858    Streitberger Georg       1981 AUT    1M 51.77S 1.46S    
#>  8     8    16 50041    Walchhofer Michael       1975 AUT    1M 51.79S 1.48S    
#>  9     8    11 50753    Kroell Klaus             1980 AUT    1M 51.79S 1.48S    
#> 10    10    25 293006   Innerhofer Christ…       1984 ITA    1M 51.85S 1.54S    
#> # ℹ 60 more rows
```
…
This table now allows to query for the full race results (similar to the
output from `query_results()`). For example, the results for the Super G
can be obtained as follows:

``` r
sg_res <- wengen_races %>% 
  filter(competition == "Super G") %>% 
  query_race()
sg_res
#> # A tibble: 47 × 11
#>     rank   bib fis_code name         brand birth_year nation time      diff_time
#>    <int> <int> <chr>    <chr>        <chr>      <int> <chr>  <Period>  <Period> 
#>  1     1     3 512471   Von Allmen … Head        2001 SUI    1M 47.65S 0S       
#>  2     2     6 53980    Kriechmayr … Head        1991 AUT    1M 47.75S 0.1S     
#>  3     3    11 512038   Rogentin St… Fisc…       1994 SUI    1M 48.23S 0.58S    
#>  4     4     1 104531   Crawford Ja… Head        1997 CAN    1M 48.27S 0.62S    
#>  5     5     9 291459   Paris Domin… Nord…       1989 ITA    1M 48.28S 0.63S    
#>  6     6     8 990081   Casse Mattia Ross…       1990 ITA    1M 48.57S 0.92S    
#>  7     7    13 512269   Odermatt Ma… Stoe…       1997 SUI    1M 48.69S 1.04S    
#>  8     8    16 104537   Alexander C… Ross…       1997 CAN    1M 48.78S 1.13S    
#>  9     9     2 512408   Monney Alex… Stoe…       2000 SUI    1M 48.92S 1.27S    
#> 10    10    26 54628    Feurstein L… Head        2001 AUT    1M 48.97S 1.32S    
#> # ℹ 37 more rows
#> # ℹ 2 more variables: fis_points <dbl>, cup_points <dbl>
```
…
